{
  "start_message": "«Л.Н.Гумилев атындағы ЕҰУ» онлайн кеңесшісіне қош келдіңіз!\nИнтерфейс тілін таңдауыңызды сұраймыз.\n———————————————————\nВас приветствует онлайн консультант «ЕНУ им. Л.Н.Гумилева»!\nПросим Вас выбрать язык интерфейса.",
  "on_kz_lang": "Қазақ тілінде",
  "on_ru_lang": "На русском языке",
  "about": "ℹ️ О нас",
  "organizations": "💼 Об организациях",
  "inform": "📕 Полезная информация",
  "register": "📝 Регистрация",
  "suggest": "✏️ Оставить предложение",
  "change_lang": "🔁 Сменить язык",
  "more": "Подробнее",
  "events": "📜 Мероприятия",
  "passed_events": "Прошедшие мероприятия",
  "future_events": "Будущие мероприятия",


  "mission": "🌐 Миссия",
  "work": "⬆️ Направления",
  "projects": "📚 Проекты",
  "rule": "📖 Устав",
  "news": "📢 Новости",
  "contacts": "📓 Контакты",

  "select": "Выберите категорию",
  "select_project": "Выберите проект ⬇️",
  "select_org_type": "Выберите тип организации",
  "select_org": "Выберите организацию ⬇️",
  "select_lang": "Выберите язык",
  "jun_org": "👫 Молодежные организации",
  "art_org": "🎹 Творческие организации",

  "medical": "🌡 Медицинские услуги",
  "sport_clubs": "⚽️ Спортклубы",
  "library": "📚 Библиотека",
  "army": "⚔ Военная кафедра",
  "stud_house": "🛏 Студенческие дома",

  "medical_center": "💉 Медицинский центр",
  "medical_points": "💊 Медицинские пункты",
  "psychology_help": "Психологическая помощь",
  "religious_help": "Религиозная помощь",
  "input_comment": "Напишите, пожалуйста, что Вас беспокоит ⬇️",
  "final_appointment": "Ваша запись сохранена",
  "no_comments": "Продолжить без комментариев",

  "input_name": "Напишите, пожалуйста, своё полное *ФИО* ⬇️",
  "input_mail": "Ваша почта?",
  "reply_contact": "Нажмите кнопку *Отправить контакт* ⬇️",
  "reply_button": "Отправить контакт",
  "input_suggestions": "Напишите, пожалуйста, Ваши предложения ⬇️",
  "add_photo": "Добавьте фото или нажмите без фото",
  "without_photo": "Без фото",

  "final_suggestion": "Ваше предложение принято и будет рассмотрено",

  "reg_org":"✏️ Регистрация на организацию",
  "reg_event":"Регистрация на мероприятие",
  "input_facult": "Напишите, пожалуйста, Вы студент какого факультета?",
  "final_registr_org":"Ваша заявка принята. В ближайшее время активисты организации {} дадут обратную связь. Просим Вас ознакомиться с правилами Организаций (активная ссылка на сайт). С уважением, команда ЕНУ им. Л.Н.Гумилева",
  "select_event": "Выберите мероприятие ⬇️",
  "get_photos": "C этого мероприятия доступен фотоотчет",
  "get_photos_from_url": "Скачать фотоотчет",
  "start_registration": "Начать регистрацию",
  "back_to_menu": "🔙 Главное меню",
  "final_registr_event":"Ваша заявка принята. В ближайшее время активисты организации дадут обратную связь. С уважением, команда ЕНУ им. Л.Н.Гумилева",
  "registration_canceled": "Регистрация отменена",
  "unknown_command": "Неопознанная команда",

  "news_message": "Для перехода на телеграм канал нажмите ссылку",
  "link": "Ссылка",
  "cancel": "Отмена",

  "not_admin": "У вас нет доступа",
  "red_admin": "Редактор админов",
  "info_admin": "Информация",
  "main_menu_admin": "Главное меню",
  "red_menu": "Редактор меню",
  "add_admin_phone": "Введите номер телефона нового администратора или поделитесь контактом",
  "admin_added": "Администратор  добавлен",

  "back_to_admin":"Назад в админку",
  "applic_event":"Заявки на мероприятия",
  "applic_suggestion": "Оставленные предложения",
  "applic_org": "Заявки на организации",
  "applic_psy_appointment": "Заявки на психологическую помощь",
  "applic_rel_appointment": "Заявки на религиозную помощь",

  "add_new": "Добавить новый",
  "red_prev": "Редактировать имеющийся",
  "mark_passed": "Отметить прошедшим",
  "change_photo_link": "Заменить фотоотчет",
  "delete_photo_link": "Удалить фотоотчет",
  "chang_but_ru":"Изменить кнопку Ru",
  "chang_but_kz":"Изменить кнопку Kz",
  "chang_txt_ru":"Изменить сообщение Ru",
  "chang_txt_kz":"Изменить сообщение Kz",
  "chang_file_ru":"Изменить файл Ru",
  "chang_file_kz":"Изменить файл Kz",
  "chang_photo_ru":"Изменить фото Ru",
  "chang_photo_kz":"Изменить фото Kz",
  "delete":"Удалить",
  "fin_change": "Завершить редактирование",

  "red_info": "Отредактировать информацию",
  "red_projects": "Отредактировать проекты",
  "red_organizations_jun": "Отредактировать молодежные организации",
  "red_organizations_art": "Отредактировать творческие организации",
  "red_events": "Отредактировать мероприятия",
  "select_type_of_message": "Выберите тип информации",
  "select_lang_of_message": "Выберите язык",
  "input_text": "Введите текст информации",
  "input_file": "Добавьте файл",
  "input_photo": "Добавьте картинку",
  "without_photos": "Не добавлять фотоотчет",
  "input_url_to_photos": "Добавьте ссылку на фотоотчет",
  "without_file": "Без файла",
  "file": "Файл",
  "text": "Текст",
  "image": "Афиша",
  "red_passed_events": "Редактировать прошедшие мероприятия",
  "red_future_events": "Редактировать будущие мероприятия",
  "changes_saved": "Изменения сохранены",


  "input_button_ru": "Введите текст кнопки(название) на русском языке",
  "input_button_kz": "Введите текст кнопки(название) на казахском языке",
  "input_text_ru": "Введите описание на русском языке",
  "input_text_kz": "Введите описание на казахском языке",
  "input_file_ru": "Добавьте файл на русском языке",
  "input_file_kz": "Добавьте файл на казахском языке",
  "input_photo_ru": "Добавьте картинку на русском языке",
  "input_photo_kz": "Добавьте картинку на казахском языке",

  "no_passed_events": "Пока нет прошедших событий",
  "no_future_events": "Пока нет будущих событий",
  "no_suggestions": "Нет оставленных предложений",
  "no_registrations": "Нет оставленных заявок",
  "no_psy_applications": "Нет заявок на психологическую помощь",
  "no_rel_applications": "Нет заявок на религиозную помощь",

  "add_new_admin": "Добавить администратора",
  "delete_admin": "Удалить администратора",
  "no_admins": "Нет активных администраторов",
  "select_number": "Выберите номер",
  "admin_deleted": "Администратор удален",

  "red_site_ru": "Редактировать сайт RU",
  "add_number_ru":"Добавить номер RU",
  "delete_number_ru":"Удалить номер RU",
  "red_address_ru":"Редактировать адрес RU",
  "red_coordinates_ru":"Редактировать геолокацию RU",

  "red_site_kz": "Редактировать сайт KZ",
  "add_number_kz":"Добавить номер KZ",
  "delete_number_kz":"Удалить номер KZ",
  "red_address_kz":"Редактировать адрес KZ",
  "red_coordinates_kz":"Редактировать геолокацию KZ",
  "no_numbers": "Нет добавленных номеров",

  "input_number_with_text_ru":  "Введите номер вместе с описанием на русском языке",
  "input_site_ru":"Введите адрес сайта для русского языка",
  "delete_number_mess_ru":"Выберите номер для удаления для русского языка",
  "red_address_text_ru":"Введите новый адрес для русского языка",
  "input_coordinates_ru":"Введите новую геолокацию через запятую для русского языка",

  "input_number_with_text_kz": "Введите номер вместе с описанием на казахском языке",
  "input_site_kz":"Введите адрес сайта для казахского языка",
  "delete_number_mess_kz":"Выберите номер для удаления для казахского языка",
  "red_address_text_kz":"Введите новый адрес для казахского языка",
  "input_coordinates_kz":"Введите новую геолокацию через запятую для казахского языка"
}